// Jest Snapshot v1, https://goo.gl/fbAQLP

exports[`Product renders correctly 1`] = `
<Product
  description=""
  image="http://lorempixel.com/400/200/technics/"
  name="Chef Anton's Cajun Seasoning"
  onAddToCartClick={[Function]}
  productID={4}
  unitPrice={22}
  unitsInStock={53}
>
  <Styled(div)>
    <div
      className="css-rb9zym"
    >
      <div>
        <Styled(img)
          src="http://lorempixel.com/400/200/technics/"
        >
          <img
            className="css-15irx98"
            src="http://lorempixel.com/400/200/technics/"
          />
        </Styled(img)>
      </div>
      <Styled(div)>
        <div
          className="css-ir0j7a"
        >
          Chef Anton's Cajun Seasoning
        </div>
      </Styled(div)>
      <div />
      <Styled(div)>
        <div
          className="css-u2ayx9"
        >
          <div>
            <div>
              Price: 
              22
              $
            </div>
            <div>
              In stock: 
              53
            </div>
          </div>
          <button
            data-test-id="product-4"
            onClick={[Function]}
            type="button"
          >
            Add to cart
          </button>
        </div>
      </Styled(div)>
    </div>
  </Styled(div)>
</Product>
`;
